A Tutorial for the sandwich R Package
…
The accuracy of the Sandwich model is determined by the SSH layer. For an ideal SSH layer, values of the target attribute are expected to be homogeneous within each stratum and differ between the strata. To determine a proper SSH layer for the Sandwich model, the geographical detector model3 is applied to quantify the SSH of the target attribute with regard to the candidate stratification(s).

First, we combine the sampling and the candidate SSH layers to a single data frame.

hs.join = geodetector.data(hs.sampling, hs.ssh, "STR_1")
hs.join = geodetector.data(hs.join, hs.ssh2, "STR_2")
hs.join

## Simple feature collection with 326 features and 6 fields
## Geometry type: POINT
## Dimension:     XYZ
## Bounding box:  xmin: 153296 ymin: 4109551 xmax: 225217.3 ymax: 4163701
## z_range:       zmin: 0 zmax: 1700
## Projected CRS: WGS 84 / UTM zone 50N
## # A tibble: 326 x 7
##    CODE  Population     x     y                      geometry STR_1 STR_2
##  * <chr>      <dbl> <dbl> <dbl>                   <POINT [m]> <chr> <chr>
##  1 02033         31  113.  37.5     Z (156491.4 4153214 1500) 05    11   
##  2 01007         23  113.  37.2 Z (165240.2 4126601 1320.701) 05    02   
##  3 01008         38  113.  37.2   Z (166538 4127516 1354.123) 05    02   
##  4 01009         89  113.  37.3 Z (169540.8 4129381 1370.255) 05    02   
##  5 01010         22  113.  37.3     Z (170685.2 4130558 1400) 05    02   
##  6 01011         29  113.  37.3     Z (171510.5 4131899 1400) 05    02   
##  7 01005         26  113.  37.2     Z (162843.4 4127714 1300) 05    02   
##  8 05014         39  113.  37.3     Z (163203.3 4129583 1300) 05    02   
##  9 05013         90  113.  37.3 Z (163987.2 4129857 1395.199) 05    02   
## 10 01001         48  113.  37.2     Z (158477.7 4129418 1400) 05    02   
## # ... with 316 more rows
…
